%YAML 1.1
%TAG !u! tag:unity3d.com,2011:
--- !u!74 &7400000
AnimationClip:
  m_ObjectHideFlags: 0
  m_PrefabParentObject: {fileID: 0}
  m_PrefabInternal: {fileID: 0}
  m_Name: GameSceneCamEntry
  serializedVersion: 6
  m_Legacy: 0
  m_Compressed: 0
  m_UseHighQualityCurve: 1
  m_RotationCurves: []
  m_CompressedRotationCurves: []
  m_EulerCurves: []
  m_PositionCurves:
  - curve:
      serializedVersion: 2
      m_Curve:
      - time: 0
        value: {x: 0, y: 15, z: -15}
        inSlope: {x: 0, y: 0, z: 35.35}
        outSlope: {x: 0, y: 0, z: 35.35}
        tangentMode: 0
      - time: 2
        value: {x: 0, y: 15, z: 55.7}
        inSlope: {x: 0, y: 0, z: 35.35}
        outSlope: {x: 0, y: 0, z: 35.35}
        tangentMode: 0
      m_PreInfinity: 2
      m_PostInfinity: 2
      m_RotationOrder: 4
    path: 
  - curve:
      serializedVersion: 2
      m_Curve:
      - time: 0
        value: {x: -0.1, y: -15, z: 107.64}
        inSlope: {x: 0, y: 0, z: 0}
        outSlope: {x: 0, y: 0, z: 0}
        tangentMode: 0
      - time: 1.1666666
        value: {x: -0.1, y: -15, z: 100}
        inSlope: {x: 0, y: 0, z: 0}
        outSlope: {x: 0, y: 0, z: 0}
        tangentMode: 0
      - time: 2
        value: {x: -0.1, y: -15, z: 40}
        inSlope: {x: 0, y: 0, z: -72}
        outSlope: {x: 0, y: 0, z: -72}
        tangentMode: 0
      m_PreInfinity: 2
      m_PostInfinity: 2
      m_RotationOrder: 4
    path: planet grayscale
  - curve:
      serializedVersion: 2
      m_Curve:
      - time: 0
        value: {x: 0, y: -2, z: 107.6}
        inSlope: {x: 0, y: 0, z: -2.399996}
        outSlope: {x: 0, y: 0, z: -2.399996}
        tangentMode: 0
      - time: 1.1666666
        value: {x: 0, y: -2, z: 104.8}
        inSlope: {x: 0, y: 0, z: -34.079998}
        outSlope: {x: 0, y: 0, z: -34.079998}
        tangentMode: 0
      - time: 2
        value: {x: 0, y: -2, z: 50}
        inSlope: {x: 0, y: 0, z: -65.76}
        outSlope: {x: 0, y: 0, z: -65.76}
        tangentMode: 0
      m_PreInfinity: 2
      m_PostInfinity: 2
      m_RotationOrder: 4
    path: Stars
  m_ScaleCurves:
  - curve:
      serializedVersion: 2
      m_Curve:
      - time: 0
        value: {x: 8, y: 8, z: 8}
        inSlope: {x: 0, y: 0, z: 0}
        outSlope: {x: 0, y: 0, z: 0}
        tangentMode: 0
      - time: 1.1666666
        value: {x: 8, y: 8, z: 8}
        inSlope: {x: 0, y: 0, z: 0}
        outSlope: {x: 0, y: 0, z: 0}
        tangentMode: 0
      - time: 1.9833333
        value: {x: 8, y: 8, z: 8}
        inSlope: {x: 0, y: 0, z: 0}
        outSlope: {x: 0, y: 0, z: 0}
        tangentMode: 0
      - time: 2
        value: {x: 2, y: 2, z: 2}
        inSlope: {x: 0, y: 0, z: 0}
        outSlope: {x: 0, y: 0, z: 0}
        tangentMode: 0
      m_PreInfinity: 2
      m_PostInfinity: 2
      m_RotationOrder: 4
    path: TransitionStarAnimation1
  m_FloatCurves:
  - curve:
      serializedVersion: 2
      m_Curve:
      - time: 0
        value: 0
        inSlope: Infinity
        outSlope: Infinity
        tangentMode: 31
      - time: 2
        value: 1
        inSlope: Infinity
        outSlope: Infinity
        tangentMode: 31
      m_PreInfinity: 2
      m_PostInfinity: 2
      m_RotationOrder: 4
    attribute: orthographic
    path: 
    classID: 20
    script: {fileID: 0}
  - curve:
      serializedVersion: 2
      m_Curve:
      - time: 0
        value: 100
        inSlope: 0
        outSlope: 0
        tangentMode: 0
      - time: 1.1666666
        value: 100
        inSlope: 0
        outSlope: 0
        tangentMode: 0
      - time: 1.9833333
        value: 70
        inSlope: 0
        outSlope: 0
        tangentMode: 0
      - time: 2
        value: 30
        inSlope: 0
        outSlope: 0
        tangentMode: 0
      m_PreInfinity: 2
      m_PostInfinity: 2
      m_RotationOrder: 4
    attribute: ShapeModule.boxX
    path: Stars
    classID: 198
    script: {fileID: 0}
  - curve:
      serializedVersion: 2
      m_Curve:
      - time: 0
        value: 150
        inSlope: 0
        outSlope: 0
        tangentMode: 0
      - time: 1.1666666
        value: 150
        inSlope: 0
        outSlope: 0
        tangentMode: 0
      - time: 1.9833333
        value: 100
        inSlope: 0
        outSlope: 0
        tangentMode: 0
      - time: 2
        value: 50
        inSlope: 0
        outSlope: 0
        tangentMode: 0
      m_PreInfinity: 2
      m_PostInfinity: 2
      m_RotationOrder: 4
    attribute: ShapeModule.boxY
    path: Stars
    classID: 198
    script: {fileID: 0}
  - curve:
      serializedVersion: 2
      m_Curve:
      - time: 0
        value: 1000
        inSlope: 0
        outSlope: 0
        tangentMode: 0
      - time: 1.1666666
        value: 1000
        inSlope: 0
        outSlope: 0
        tangentMode: 0
      - time: 1.9833333
        value: 1001
        inSlope: 0
        outSlope: 0
        tangentMode: 0
      - time: 2
        value: 400
        inSlope: 0
        outSlope: 0
        tangentMode: 0
      m_PreInfinity: 2
      m_PostInfinity: 2
      m_RotationOrder: 4
    attribute: EmissionModule.rate.scalar
    path: Stars
    classID: 198
    script: {fileID: 0}
  m_PPtrCurves: []
  m_SampleRate: 60
  m_WrapMode: 0
  m_Bounds:
    m_Center: {x: 0, y: 0, z: 0}
    m_Extent: {x: 0, y: 0, z: 0}
  m_ClipBindingConstant:
    genericBindings:
    - path: 0
      attribute: 1
      script: {fileID: 0}
      classID: 4
      customType: 0
      isPPtrCurve: 0
    - path: 2641962498
      attribute: 1
      script: {fileID: 0}
      classID: 4
      customType: 0
      isPPtrCurve: 0
    - path: 3235704616
      attribute: 1
      script: {fileID: 0}
      classID: 4
      customType: 0
      isPPtrCurve: 0
    - path: 336096617
      attribute: 3
      script: {fileID: 0}
      classID: 4
      customType: 0
      isPPtrCurve: 0
    - path: 0
      attribute: 2002333753
      script: {fileID: 0}
      classID: 20
      customType: 0
      isPPtrCurve: 0
    - path: 3235704616
      attribute: 2036941725
      script: {fileID: 0}
      classID: 198
      customType: 0
      isPPtrCurve: 0
    - path: 3235704616
      attribute: 242119435
      script: {fileID: 0}
      classID: 198
      customType: 0
      isPPtrCurve: 0
    - path: 3235704616
      attribute: 2181258151
      script: {fileID: 0}
      classID: 198
      customType: 0
      isPPtrCurve: 0
    pptrCurveMapping: []
  m_AnimationClipSettings:
    serializedVersion: 2
    m_AdditiveReferencePoseClip: {fileID: 0}
    m_AdditiveReferencePoseTime: 0
    m_StartTime: 0
    m_StopTime: 2
    m_OrientationOffsetY: 0
    m_Level: 0
    m_CycleOffset: 0
    m_HasAdditiveReferencePose: 0
    m_LoopTime: 0
    m_LoopBlend: 0
    m_LoopBlendOrientation: 0
    m_LoopBlendPositionY: 0
    m_LoopBlendPositionXZ: 0
    m_KeepOriginalOrientation: 0
    m_KeepOriginalPositionY: 1
    m_KeepOriginalPositionXZ: 0
    m_HeightFromFeet: 0
    m_Mirror: 0
  m_EditorCurves:
  - curve:
      serializedVersion: 2
      m_Curve:
      - time: 0
        value: 0
        inSlope: Infinity
        outSlope: Infinity
        tangentMode: 31
      - time: 2
        value: 1
        inSlope: Infinity
        outSlope: Infinity
        tangentMode: 31
      m_PreInfinity: 2
      m_PostInfinity: 2
      m_RotationOrder: 4
    attribute: orthographic
    path: 
    classID: 20
    script: {fileID: 0}
  - curve:
      serializedVersion: 2
      m_Curve:
      - time: 0
        value: 0
        inSlope: 0
        outSlope: 0
        tangentMode: 10
      - time: 2
        value: 0
        inSlope: 0
        outSlope: 0
        tangentMode: 10
      m_PreInfinity: 2
      m_PostInfinity: 2
      m_RotationOrder: 4
    attribute: m_LocalPosition.x
    path: 
    classID: 4
    script: {fileID: 0}
  - curve:
      serializedVersion: 2
      m_Curve:
      - time: 0
        value: 15
        inSlope: 0
        outSlope: 0
        tangentMode: 10
      - time: 2
        value: 15
        inSlope: 0
        outSlope: 0
        tangentMode: 10
      m_PreInfinity: 2
      m_PostInfinity: 2
      m_RotationOrder: 4
    attribute: m_LocalPosition.y
    path: 
    classID: 4
    script: {fileID: 0}
  - curve:
      serializedVersion: 2
      m_Curve:
      - time: 0
        value: -15
        inSlope: 35.35
        outSlope: 35.35
        tangentMode: 10
      - time: 2
        value: 55.7
        inSlope: 35.35
        outSlope: 35.35
        tangentMode: 10
      m_PreInfinity: 2
      m_PostInfinity: 2
      m_RotationOrder: 4
    attribute: m_LocalPosition.z
    path: 
    classID: 4
    script: {fileID: 0}
  - curve:
      serializedVersion: 2
      m_Curve:
      - time: 0
        value: -0.1
        inSlope: 0
        outSlope: 0
        tangentMode: 0
      - time: 1.1666666
        value: -0.1
        inSlope: 0
        outSlope: 0
        tangentMode: 0
      - time: 2
        value: -0.1
        inSlope: 0
        outSlope: 0
        tangentMode: 10
      m_PreInfinity: 2
      m_PostInfinity: 2
      m_RotationOrder: 4
    attribute: m_LocalPosition.x
    path: planet grayscale
    classID: 4
    script: {fileID: 0}
  - curve:
      serializedVersion: 2
      m_Curve:
      - time: 0
        value: -15
        inSlope: 0
        outSlope: 0
        tangentMode: 0
      - time: 1.1666666
        value: -15
        inSlope: 0
        outSlope: 0
        tangentMode: 0
      - time: 2
        value: -15
        inSlope: 0
        outSlope: 0
        tangentMode: 10
      m_PreInfinity: 2
      m_PostInfinity: 2
      m_RotationOrder: 4
    attribute: m_LocalPosition.y
    path: planet grayscale
    classID: 4
    script: {fileID: 0}
  - curve:
      serializedVersion: 2
      m_Curve:
      - time: 0
        value: 107.64
        inSlope: 0
        outSlope: 0
        tangentMode: 0
      - time: 1.1666666
        value: 100
        inSlope: 0
        outSlope: 0
        tangentMode: 0
      - time: 2
        value: 40
        inSlope: -72
        outSlope: -72
        tangentMode: 10
      m_PreInfinity: 2
      m_PostInfinity: 2
      m_RotationOrder: 4
    attribute: m_LocalPosition.z
    path: planet grayscale
    classID: 4
    script: {fileID: 0}
  - curve:
      serializedVersion: 2
      m_Curve:
      - time: 0
        value: 8
        inSlope: 0
        outSlope: 0
        tangentMode: 0
      - time: 1.1666666
        value: 8
        inSlope: 0
        outSlope: 0
        tangentMode: 0
      - time: 1.9833333
        value: 8
        inSlope: 0
        outSlope: 0
        tangentMode: 0
      - time: 2
        value: 2
        inSlope: 0
        outSlope: 0
        tangentMode: 0
      m_PreInfinity: 2
      m_PostInfinity: 2
      m_RotationOrder: 4
    attribute: m_LocalScale.x
    path: TransitionStarAnimation1
    classID: 4
    script: {fileID: 0}
  - curve:
      serializedVersion: 2
      m_Curve:
      - time: 0
        value: 8
        inSlope: 0
        outSlope: 0
        tangentMode: 0
      - time: 1.1666666
        value: 8
        inSlope: 0
        outSlope: 0
        tangentMode: 0
      - time: 1.9833333
        value: 8
        inSlope: 0
        outSlope: 0
        tangentMode: 0
      - time: 2
        value: 2
        inSlope: 0
        outSlope: 0
        tangentMode: 0
      m_PreInfinity: 2
      m_PostInfinity: 2
      m_RotationOrder: 4
    attribute: m_LocalScale.y
    path: TransitionStarAnimation1
    classID: 4
    script: {fileID: 0}
  - curve:
      serializedVersion: 2
      m_Curve:
      - time: 0
        value: 8
        inSlope: 0
        outSlope: 0
        tangentMode: 0
      - time: 1.1666666
        value: 8
        inSlope: 0
        outSlope: 0
        tangentMode: 0
      - time: 1.9833333
        value: 8
        inSlope: 0
        outSlope: 0
        tangentMode: 0
      - time: 2
        value: 2
        inSlope: 0
        outSlope: 0
        tangentMode: 0
      m_PreInfinity: 2
      m_PostInfinity: 2
      m_RotationOrder: 4
    attribute: m_LocalScale.z
    path: TransitionStarAnimation1
    classID: 4
    script: {fileID: 0}
  - curve:
      serializedVersion: 2
      m_Curve:
      - time: 0
        value: 100
        inSlope: 0
        outSlope: 0
        tangentMode: 0
      - time: 1.1666666
        value: 100
        inSlope: 0
        outSlope: 0
        tangentMode: 0
      - time: 1.9833333
        value: 70
        inSlope: 0
        outSlope: 0
        tangentMode: 0
      - time: 2
        value: 30
        inSlope: 0
        outSlope: 0
        tangentMode: 0
      m_PreInfinity: 2
      m_PostInfinity: 2
      m_RotationOrder: 4
    attribute: ShapeModule.boxX
    path: Stars
    classID: 198
    script: {fileID: 0}
  - curve:
      serializedVersion: 2
      m_Curve:
      - time: 0
        value: 150
        inSlope: 0
        outSlope: 0
        tangentMode: 0
      - time: 1.1666666
        value: 150
        inSlope: 0
        outSlope: 0
        tangentMode: 0
      - time: 1.9833333
        value: 100
        inSlope: 0
        outSlope: 0
        tangentMode: 0
      - time: 2
        value: 50
        inSlope: 0
        outSlope: 0
        tangentMode: 0
      m_PreInfinity: 2
      m_PostInfinity: 2
      m_RotationOrder: 4
    attribute: ShapeModule.boxY
    path: Stars
    classID: 198
    script: {fileID: 0}
  - curve:
      serializedVersion: 2
      m_Curve:
      - time: 0
        value: 0
        inSlope: 0
        outSlope: 0
        tangentMode: 10
      - time: 1.1666666
        value: 0
        inSlope: 0
        outSlope: 0
        tangentMode: 10
      - time: 2
        value: 0
        inSlope: 0
        outSlope: 0
        tangentMode: 10
      m_PreInfinity: 2
      m_PostInfinity: 2
      m_RotationOrder: 4
    attribute: m_LocalPosition.x
    path: Stars
    classID: 4
    script: {fileID: 0}
  - curve:
      serializedVersion: 2
      m_Curve:
      - time: 0
        value: -2
        inSlope: 0
        outSlope: 0
        tangentMode: 10
      - time: 1.1666666
        value: -2
        inSlope: 0
        outSlope: 0
        tangentMode: 10
      - time: 2
        value: -2
        inSlope: 0
        outSlope: 0
        tangentMode: 10
      m_PreInfinity: 2
      m_PostInfinity: 2
      m_RotationOrder: 4
    attribute: m_LocalPosition.y
    path: Stars
    classID: 4
    script: {fileID: 0}
  - curve:
      serializedVersion: 2
      m_Curve:
      - time: 0
        value: 107.6
        inSlope: -2.399996
        outSlope: -2.399996
        tangentMode: 10
      - time: 1.1666666
        value: 104.8
        inSlope: -34.079998
        outSlope: -34.079998
        tangentMode: 10
      - time: 2
        value: 50
        inSlope: -65.76
        outSlope: -65.76
        tangentMode: 10
      m_PreInfinity: 2
      m_PostInfinity: 2
      m_RotationOrder: 4
    attribute: m_LocalPosition.z
    path: Stars
    classID: 4
    script: {fileID: 0}
  - curve:
      serializedVersion: 2
      m_Curve:
      - time: 0
        value: 1000
        inSlope: 0
        outSlope: 0
        tangentMode: 0
      - time: 1.1666666
        value: 1000
        inSlope: 0
        outSlope: 0
        tangentMode: 0
      - time: 1.9833333
        value: 1001
        inSlope: 0
        outSlope: 0
        tangentMode: 0
      - time: 2
        value: 400
        inSlope: 0
        outSlope: 0
        tangentMode: 0
      m_PreInfinity: 2
      m_PostInfinity: 2
      m_RotationOrder: 4
    attribute: EmissionModule.rate.scalar
    path: Stars
    classID: 198
    script: {fileID: 0}
  m_EulerEditorCurves: []
  m_HasGenericRootTransform: 1
  m_HasMotionFloatCurves: 0
  m_GenerateMotionCurves: 0
  m_Events:
  - time: 0
    functionName: SetRandomColor
    data: 
    objectReferenceParameter: {fileID: 0}
    floatParameter: 0
    intParameter: 0
    messageOptions: 0
  - time: 0
    functionName: TogglePause
    data: 
    objectReferenceParameter: {fileID: 0}
    floatParameter: 0
    intParameter: 0
    messageOptions: 0
  - time: 2
    functionName: TogglePause
    data: 
    objectReferenceParameter: {fileID: 0}
    floatParameter: 0
    intParameter: 0
    messageOptions: 0
