%YAML 1.1
%TAG !u! tag:unity3d.com,2011:
--- !u!21 &2100000
Material:
  serializedVersion: 6
  m_ObjectHideFlags: 0
  m_PrefabParentObject: {fileID: 0}
  m_PrefabInternal: {fileID: 0}
  m_Name: alien_t24
  m_Shader: {fileID: 4800000, guid: 24a666c4cf4f5194ba2cdff51c1dc2f0, type: 3}
  m_ShaderKeywords: OUTLINE_BLENDING TCP2_OUTLINE_CONST_SIZE TCP2_ZSMOOTH_ON
  m_LightmapFlags: 5
  m_CustomRenderQueue: 2000
  stringTagMap: {}
  m_SavedProperties:
    serializedVersion: 2
    m_TexEnvs:
      data:
        first:
          name: _MainTex
        second:
          m_Texture: {fileID: 2800000, guid: e81e55d9da4a1904994c340efbe67e50, type: 3}
          m_Scale: {x: 1, y: 1}
          m_Offset: {x: 0, y: 0}
      data:
        first:
          name: _BumpMap
        second:
          m_Texture: {fileID: 0}
          m_Scale: {x: 1, y: 1}
          m_Offset: {x: 0, y: 0}
      data:
        first:
          name: _Ramp
        second:
          m_Texture: {fileID: 0}
          m_Scale: {x: 1, y: 1}
          m_Offset: {x: 0, y: 0}
    m_Floats:
      data:
        first:
          name: _RampThreshold
        second: 0.5
      data:
        first:
          name: _RampSmooth
        second: 0.1
      data:
        first:
          name: _Outline
        second: 0.17
      data:
        first:
          name: _TexLod
        second: 5
      data:
        first:
          name: _ZSmooth
        second: -0.5
      data:
        first:
          name: _Offset1
        second: 0
      data:
        first:
          name: _Offset2
        second: 0
      data:
        first:
          name: _SrcBlendOutline
        second: 5
      data:
        first:
          name: _DstBlendOutline
        second: 10
    m_Colors:
      data:
        first:
          name: _Color
        second: {r: 1, g: 1, b: 1, a: 1}
      data:
        first:
          name: _HColor
        second: {r: 0.32156864, g: 0.8745099, b: 0.65882355, a: 1}
      data:
        first:
          name: _SColor
        second: {r: 0.2, g: 0.2, b: 0.2, a: 1}
      data:
        first:
          name: _OutlineColor
        second: {r: 0.4666667, g: 0.9843138, b: 0.6745098, a: 1}
