%YAML 1.1
%TAG !u! tag:unity3d.com,2011:
--- !u!21 &2100000
Material:
  serializedVersion: 6
  m_ObjectHideFlags: 0
  m_PrefabParentObject: {fileID: 0}
  m_PrefabInternal: {fileID: 0}
  m_Name: alien_t25
  m_Shader: {fileID: 4800000, guid: dd496457a855aa341b0d7b7b475a7a3a, type: 3}
  m_ShaderKeywords: OUTLINES TCP2_OUTLINE_CONST_SIZE
  m_LightmapFlags: 5
  m_CustomRenderQueue: 2000
  stringTagMap: {}
  m_SavedProperties:
    serializedVersion: 2
    m_TexEnvs:
      data:
        first:
          name: _MainTex
        second:
          m_Texture: {fileID: 2800000, guid: 3a408c48f9271834bb8f4d53a857d45f, type: 3}
          m_Scale: {x: 1, y: 1}
          m_Offset: {x: 0, y: 0}
      data:
        first:
          name: _BumpMap
        second:
          m_Texture: {fileID: 0}
          m_Scale: {x: 1, y: 1}
          m_Offset: {x: 0, y: 0}
      data:
        first:
          name: _Ramp
        second:
          m_Texture: {fileID: 0}
          m_Scale: {x: 1, y: 1}
          m_Offset: {x: 0, y: 0}
    m_Floats:
      data:
        first:
          name: _RampThreshold
        second: 0.5
      data:
        first:
          name: _RampSmooth
        second: 0.1
      data:
        first:
          name: _Outline
        second: 0.17
      data:
        first:
          name: _TexLod
        second: 5
      data:
        first:
          name: _ZSmooth
        second: -0.5
      data:
        first:
          name: _Offset1
        second: 0
      data:
        first:
          name: _Offset2
        second: 0
      data:
        first:
          name: _SrcBlendOutline
        second: 5
      data:
        first:
          name: _DstBlendOutline
        second: 10
    m_Colors:
      data:
        first:
          name: _Color
        second: {r: 1, g: 1, b: 1, a: 1}
      data:
        first:
          name: _HColor
        second: {r: 0.6, g: 0.6, b: 0.6, a: 1}
      data:
        first:
          name: _SColor
        second: {r: 0.2, g: 0.2, b: 0.2, a: 1}
      data:
        first:
          name: _OutlineColor
        second: {r: 0.6544118, g: 0.65441173, b: 0.120296285, a: 1}
