%YAML 1.1
%TAG !u! tag:unity3d.com,2011:
--- !u!74 &7400000
AnimationClip:
  m_ObjectHideFlags: 0
  m_PrefabParentObject: {fileID: 0}
  m_PrefabInternal: {fileID: 0}
  m_Name: TileTouchRight
  serializedVersion: 6
  m_Legacy: 0
  m_Compressed: 0
  m_UseHighQualityCurve: 1
  m_RotationCurves: []
  m_CompressedRotationCurves: []
  m_EulerCurves: []
  m_PositionCurves: []
  m_ScaleCurves:
  - curve:
      serializedVersion: 2
      m_Curve:
      - time: 0
        value: {x: 5, y: 5, z: 5}
        inSlope: {x: -30, y: -30, z: -30}
        outSlope: {x: -30, y: -30, z: -30}
        tangentMode: 0
      - time: 0.083333336
        value: {x: 2.5, y: 2.5, z: 2.5}
        inSlope: {x: -6.749999, y: -6.749999, z: -6.749999}
        outSlope: {x: -6.749999, y: -6.749999, z: -6.749999}
        tangentMode: 0
      - time: 0.41666666
        value: {x: 8, y: 8, z: 8}
        inSlope: {x: 16.500002, y: 16.500002, z: 16.500002}
        outSlope: {x: 16.500002, y: 16.500002, z: 16.500002}
        tangentMode: 0
      m_PreInfinity: 2
      m_PostInfinity: 2
      m_RotationOrder: 4
    path: Cube
  m_FloatCurves: []
  m_PPtrCurves: []
  m_SampleRate: 60
  m_WrapMode: 0
  m_Bounds:
    m_Center: {x: 0, y: 0, z: 0}
    m_Extent: {x: 0, y: 0, z: 0}
  m_ClipBindingConstant:
    genericBindings:
    - path: 2429296262
      attribute: 3
      script: {fileID: 0}
      classID: 4
      customType: 0
      isPPtrCurve: 0
    pptrCurveMapping: []
  m_AnimationClipSettings:
    serializedVersion: 2
    m_AdditiveReferencePoseClip: {fileID: 0}
    m_AdditiveReferencePoseTime: 0
    m_StartTime: 0
    m_StopTime: 0.41666666
    m_OrientationOffsetY: 0
    m_Level: 0
    m_CycleOffset: 0
    m_HasAdditiveReferencePose: 0
    m_LoopTime: 1
    m_LoopBlend: 0
    m_LoopBlendOrientation: 0
    m_LoopBlendPositionY: 0
    m_LoopBlendPositionXZ: 0
    m_KeepOriginalOrientation: 0
    m_KeepOriginalPositionY: 1
    m_KeepOriginalPositionXZ: 0
    m_HeightFromFeet: 0
    m_Mirror: 0
  m_EditorCurves:
  - curve:
      serializedVersion: 2
      m_Curve:
      - time: 0
        value: 5
        inSlope: -30
        outSlope: -30
        tangentMode: 10
      - time: 0.083333336
        value: 2.5
        inSlope: -6.749999
        outSlope: -6.749999
        tangentMode: 10
      - time: 0.41666666
        value: 8
        inSlope: 16.500002
        outSlope: 16.500002
        tangentMode: 10
      m_PreInfinity: 2
      m_PostInfinity: 2
      m_RotationOrder: 4
    attribute: m_LocalScale.x
    path: Cube
    classID: 4
    script: {fileID: 0}
  - curve:
      serializedVersion: 2
      m_Curve:
      - time: 0
        value: 5
        inSlope: -30
        outSlope: -30
        tangentMode: 10
      - time: 0.083333336
        value: 2.5
        inSlope: -6.749999
        outSlope: -6.749999
        tangentMode: 10
      - time: 0.41666666
        value: 8
        inSlope: 16.500002
        outSlope: 16.500002
        tangentMode: 10
      m_PreInfinity: 2
      m_PostInfinity: 2
      m_RotationOrder: 4
    attribute: m_LocalScale.y
    path: Cube
    classID: 4
    script: {fileID: 0}
  - curve:
      serializedVersion: 2
      m_Curve:
      - time: 0
        value: 5
        inSlope: -30
        outSlope: -30
        tangentMode: 10
      - time: 0.083333336
        value: 2.5
        inSlope: -6.749999
        outSlope: -6.749999
        tangentMode: 10
      - time: 0.41666666
        value: 8
        inSlope: 16.500002
        outSlope: 16.500002
        tangentMode: 10
      m_PreInfinity: 2
      m_PostInfinity: 2
      m_RotationOrder: 4
    attribute: m_LocalScale.z
    path: Cube
    classID: 4
    script: {fileID: 0}
  m_EulerEditorCurves: []
  m_HasGenericRootTransform: 0
  m_HasMotionFloatCurves: 0
  m_GenerateMotionCurves: 0
  m_Events: []
